<svg width="512" height="512" xmlns="http://www.w3.org/2000/svg">

 <g>
  <title>background</title>
  <rect fill="none" id="canvas_background" height="402" width="582" y="-1" x="-1"/>
 </g>
 <g>
  <title fill="#77943e">Layer 1</title>
  <path fill="#77943e" id="svg_2" d="m109.722,248l-4,0l-60,0l-4,0c-6.065,0 -10.722,4.435 -10.722,10.5l0,219.5l90,0l0,-219.5c0,-6.065 -5.212,-10.5 -11.278,-10.5zm-24,160l-20,0c-2.761,0 -5,-2.238 -5,-5s2.239,-5 5,-5l20,0c2.761,0 5,2.238 5,5s-2.239,5 -5,5zm0,-40l-20,0c-2.761,0 -5,-2.238 -5,-5s2.239,-5 5,-5l20,0c2.761,0 5,2.238 5,5s-2.239,5 -5,5zm0,-40l-20,0c-2.761,0 -5,-2.238 -5,-5s2.239,-5 5,-5l20,0c2.761,0 5,2.238 5,5s-2.239,5 -5,5zm0,-40l-20,0c-2.761,0 -5,-2.238 -5,-5s2.239,-5 5,-5l20,0c2.761,0 5,2.238 5,5s-2.239,5 -5,5z"/>
  <path fill="#77943e" id="svg_3" d="m221.45,125.135c0.514,-0.287 1.032,-0.567 1.554,-0.839c0.219,-0.114 0.438,-0.226 0.658,-0.337c0.536,-0.271 1.077,-0.532 1.621,-0.787c0.167,-0.078 0.333,-0.16 0.501,-0.237c0.702,-0.321 1.41,-0.627 2.124,-0.921c0.166,-0.068 0.333,-0.131 0.5,-0.197c0.56,-0.225 1.123,-0.441 1.69,-0.648c0.234,-0.086 0.469,-0.169 0.704,-0.252c0.547,-0.192 1.097,-0.376 1.649,-0.553c0.198,-0.063 0.394,-0.129 0.592,-0.19c0.737,-0.228 1.479,-0.442 2.226,-0.642c0.141,-0.038 0.283,-0.07 0.424,-0.106c0.614,-0.159 1.231,-0.309 1.851,-0.449c0.241,-0.055 0.482,-0.106 0.723,-0.157c0.559,-0.119 1.119,-0.229 1.682,-0.332c0.219,-0.04 0.438,-0.083 0.658,-0.121c0.764,-0.131 1.53,-0.25 2.3,-0.352c0.092,-0.012 0.184,-0.021 0.276,-0.032c0.684,-0.087 1.369,-0.161 2.056,-0.225c0.24,-0.022 0.481,-0.04 0.722,-0.06c0.569,-0.045 1.139,-0.083 1.71,-0.112c0.234,-0.012 0.467,-0.026 0.701,-0.035c0.782,-0.031 1.566,-0.051 2.351,-0.051s1.568,0.021 2.352,0.051c0.233,0.009 0.467,0.023 0.701,0.035c0.57,0.029 1.141,0.066 1.709,0.112c0.241,0.02 0.481,0.038 0.722,0.06c0.688,0.063 1.373,0.138 2.056,0.225c0.092,0.012 0.184,0.02 0.275,0.032c0.771,0.102 1.537,0.221 2.301,0.352c0.221,0.038 0.439,0.081 0.658,0.121c0.563,0.103 1.123,0.213 1.682,0.332c0.242,0.051 0.482,0.103 0.723,0.157c0.621,0.14 1.238,0.291 1.855,0.45c0.139,0.036 0.279,0.068 0.42,0.105c0.746,0.199 1.488,0.415 2.225,0.642c0.199,0.061 0.395,0.127 0.594,0.19c0.553,0.177 1.102,0.361 1.65,0.553c0.234,0.083 0.467,0.166 0.701,0.251c0.568,0.208 1.133,0.425 1.695,0.65c0.164,0.066 0.33,0.128 0.494,0.196c0.715,0.293 1.424,0.601 2.127,0.922c0.166,0.075 0.328,0.155 0.492,0.232c0.547,0.256 1.092,0.52 1.631,0.792c0.217,0.11 0.436,0.221 0.65,0.334c0.527,0.274 1.051,0.557 1.568,0.846c0.17,0.095 0.48,0.187 0.648,0.283c0.068,0.04 0.348,0.076 0.348,0.116l0,-18.039c0,-14.488 -11,-26.609 -24,-29.396l0,-38.604c0,-2.761 -2.238,-5 -5,-5c-2.761,0 -5,2.239 -5,5l0,38.274c-15,1.963 -26,14.541 -26,29.726l0,18.039c0,-0.039 -0.003,-0.074 0.064,-0.113c0.174,-0.099 0.211,-0.193 0.386,-0.291z"/>
  <path fill="#77943e" id="svg_4" d="m202.669,201.435c0.675,-0.426 1.356,-0.842 2.042,-1.25c0.378,-0.226 0.755,-0.453 1.137,-0.672c0.776,-0.447 1.56,-0.877 2.349,-1.3c0.29,-0.156 0.577,-0.319 0.869,-0.472c1.084,-0.566 2.179,-1.112 3.284,-1.634c0.204,-0.096 0.412,-0.184 0.617,-0.278c0.904,-0.418 1.813,-0.824 2.729,-1.212c0.384,-0.162 0.771,-0.314 1.156,-0.471c0.753,-0.306 1.509,-0.605 2.27,-0.891c0.425,-0.16 0.852,-0.314 1.279,-0.468c0.746,-0.267 1.496,-0.523 2.249,-0.771c0.421,-0.139 0.842,-0.278 1.266,-0.411c0.825,-0.258 1.655,-0.499 2.487,-0.733c0.347,-0.098 0.691,-0.202 1.039,-0.296c1.18,-0.316 2.366,-0.613 3.56,-0.882c0.136,-0.03 0.274,-0.055 0.41,-0.084c1.057,-0.233 2.118,-0.447 3.184,-0.642c0.399,-0.073 0.8,-0.135 1.2,-0.202c0.813,-0.138 1.628,-0.268 2.446,-0.382c0.453,-0.064 0.906,-0.121 1.36,-0.178c0.785,-0.098 1.57,-0.186 2.358,-0.263c0.454,-0.044 0.908,-0.089 1.363,-0.127c0.838,-0.069 1.678,-0.122 2.519,-0.168c0.394,-0.021 0.788,-0.05 1.182,-0.066c1.231,-0.051 2.464,-0.083 3.7,-0.083s2.469,0.031 3.7,0.083c0.395,0.016 0.788,0.044 1.182,0.066c0.842,0.046 1.681,0.099 2.519,0.168c0.455,0.038 0.91,0.083 1.363,0.127c0.789,0.077 1.574,0.165 2.359,0.263c0.453,0.057 0.906,0.114 1.359,0.178c0.818,0.115 1.633,0.245 2.447,0.382c0.398,0.067 0.801,0.129 1.199,0.202c1.068,0.195 2.131,0.41 3.191,0.644c0.133,0.029 0.268,0.053 0.4,0.083c1.195,0.269 2.381,0.565 3.563,0.882c0.346,0.093 0.689,0.197 1.033,0.294c0.834,0.235 1.666,0.476 2.492,0.735c0.422,0.132 0.842,0.271 1.262,0.409c0.756,0.248 1.506,0.505 2.254,0.773c0.426,0.153 0.852,0.307 1.275,0.466c0.762,0.286 1.52,0.586 2.273,0.893c0.385,0.156 0.771,0.308 1.152,0.47c0.918,0.389 1.83,0.795 2.736,1.214c0.203,0.094 0.408,0.181 0.611,0.276c1.105,0.521 2.199,1.068 3.285,1.634c0.291,0.153 0.578,0.316 0.869,0.472c0.787,0.423 1.57,0.853 2.346,1.299c0.383,0.22 0.762,0.449 1.143,0.675c0.682,0.406 1.359,0.82 2.031,1.245c0.393,0.248 0.922,0.498 1.311,0.751c0.258,0.169 -0.08,0.33 0.92,0.502l0,-25.185c0,-14.968 -6.766,-29.026 -18.32,-38.57c0,0 -0.071,-0.001 -0.071,-0.002c-6.135,-5.066 -13.427,-8.568 -21.132,-10.262c-3.502,-0.77 -7.114,-1.166 -10.737,-1.166c-2.174,0 -4.346,0.143 -6.485,0.423c-9.271,1.215 -17.955,5.018 -25.205,11.004c-11.556,9.544 -18.049,23.603 -18.049,38.573l0,25.186c0,-0.174 0.388,-0.335 0.648,-0.506c0.385,-0.252 0.633,-0.499 1.021,-0.745z"/>
  <path fill="#77943e" id="svg_5" d="m302.623,216.527c-14.438,-12.27 -32.89,-19.027 -51.832,-19.027c-18.941,0 -37.22,6.757 -51.658,19.027c-17.945,15.251 -28.133,37.475 -28.133,60.973l0,200.5l160,0l0,-200.5c0,-23.499 -10.432,-45.722 -28.377,-60.973zm-86.623,186.473l-20,0l0,-20l20,0l0,20zm0,-30l-20,0l0,-20l20,0l0,20zm0,-30l-20,0l0,-20l20,0l0,20zm0,-30l-20,0l0,-20l20,0l0,20zm0,-30l-20,0l0,-20l20,0l0,20zm30,120l-20,0l0,-20l20,0l0,20zm0,-30l-20,0l0,-20l20,0l0,20zm0,-30l-20,0l0,-20l20,0l0,20zm0,-30l-20,0l0,-20l20,0l0,20zm0,-30l-20,0l0,-20l20,0l0,20zm30,120l-20,0l0,-20l20,0l0,20zm0,-30l-20,0l0,-20l20,0l0,20zm0,-30l-20,0l0,-20l20,0l0,20zm0,-30l-20,0l0,-20l20,0l0,20zm0,-30l-20,0l0,-20l20,0l0,20zm30,120l-20,0l0,-20l20,0l0,20zm0,-30l-20,0l0,-20l20,0l0,20zm0,-30l-20,0l0,-20l20,0l0,20zm0,-30l-20,0l0,-20l20,0l0,20zm0,-30l-20,0l0,-20l20,0l0,20z"/>
  <path fill="#77943e" id="svg_6" d="m131,478l30,0l0,-200.5c0,-3.361 -0.088,-6.5 0.279,-9.5l-30.279,0l0,210z"/>
  <polygon fill="#77943e" id="svg_7" points="51,208 51,238 101,238 101,208 95.722,208 55.722,208   "/>
  <path fill="#77943e" id="svg_8" d="m341,277.5l0,200.5l30,0l0,-205.5c0,-1.687 -0.189,-3.5 -0.041,-4.5l-30.795,0c0.369,3 0.836,6.139 0.836,9.5z"/>
  <path fill="#77943e" id="svg_9" d="m432,227.912l0,-38.412c0,-2.761 -2.238,-5 -5,-5s-5,2.239 -5,5l0,38.188c-23,2.032 -41,21.348 -41,44.813l0,205.499l90,0l0,-205.5c0,-22.778 -17,-41.644 -39,-44.588zm3.723,130.088l-20,0c-2.762,0 -5,-2.238 -5,-5s2.238,-5 5,-5l20,0c2.762,0 5,2.238 5,5s-2.239,5 -5,5zm0,-40l-20,0c-2.762,0 -5,-2.238 -5,-5s2.238,-5 5,-5l20,0c2.762,0 5,2.238 5,5s-2.239,5 -5,5zm0,-40l-20,0c-2.762,0 -5,-2.238 -5,-5s2.238,-5 5,-5l20,0c2.762,0 5,2.238 5,5s-2.239,5 -5,5z"/>
  <path fill="#77943e" id="svg_10" d="m72,168l-11,0l0,30l30,0l0,-30l-9,0l0,-38.5c0,-2.761 -2.239,-5 -5,-5s-5,2.239 -5,5l0,38.5z"/>
  <path fill="#77943e" id="svg_11" d="m476.277,102l-30.461,0c-1.832,-10 -9.436,-19.673 -19.68,-22.854c-4.922,-11.636 -16.127,-19.315 -28.691,-19.315c-12.707,0 -24.006,7.914 -28.818,19.544c-2.926,-1.019 -6.012,-1.556 -9.139,-1.556c-15.637,0 -28.359,13.016 -28.359,29.021c0,2.761 2.238,4.997 5,4.997s5,-2.24 5,-5.001c0,-10.491 8.236,-19.026 18.359,-19.026c3.375,0 6.674,0.959 9.543,2.773c1.393,0.88 3.131,1.017 4.643,0.369c1.514,-0.649 2.611,-2.001 2.934,-3.617c2.027,-10.166 10.791,-17.545 20.838,-17.545c9.148,0 17.252,6.032 20.168,15.01c0.559,1.72 2.002,3.004 3.773,3.359c8.607,1.722 14.854,9.659 14.854,18.758c0,2.761 2.238,5.083 5,5.083l35.037,0c2.762,0 5,-2.239 5,-5s-2.239,-5 -5.001,-5z"/>
  <path fill="#77943e" id="svg_12" d="m126.722,55l-40,0c-2.761,0 -5,2.239 -5,5s2.239,5 5,5l40,0c2.761,0 5,-2.239 5,-5s-2.239,-5 -5,-5z"/>
  <path fill="#77943e" id="svg_13" d="m36.722,95l30,0c2.761,0 5,-2.239 5,-5s-2.239,-5 -5,-5l-30,0c-2.761,0 -5,2.239 -5,5s2.239,5 5,5z"/>
 </g>
</svg>